…
<img src="man/figures/README-BRVM_plot-1.png" width="100%" />

BRVM_ticker_desc function receives no argument and returns informations
about BRVM exchange companies.

``` r
BRVM_ticker_desc()
#> # A tibble: 47 × 4
#>    Ticker `Company name`                 Sector       Country     
#>    <chr>  <chr>                          <fct>        <fct>       
#>  1 ABJC   SERVAIR ABIDJAN  COTE D'IVOIRE DISTRIBUTION IVORY COAST 
#>  2 BICC   BICI COTE D'IVOIRE             FINANCE      IVORY COAST 
#>  3 BNBC   BERNABE COTE D'IVOIRE          DISTRIBUTION IVORY COAST 
#>  4 BOAB   BANK OF AFRICA BENIN           FINANCE      BENIN       
#>  5 BOABF  BANK OF AFRICA BURKINA FASO    FINANCE      BURKINA FASO
#>  6 BOAC   BANK OF AFRICA COTE D'IVOIRE   FINANCE      IVORY COAST 
#>  7 BOAM   BANK OF AFRICA MALI            FINANCE      MALI        
#>  8 BOAN   BANK OF AFRICA NIGER           FINANCE      NIGER       
#>  9 BOAS   BANK OF AFRICA SENEGAL         FINANCE      SENEGAL     
#> 10 CABC   SICABLE COTE D'IVOIRE          INDUSTRY     IVORY COAST 
#> # … with 37 more rows
```
…
